{
  "server": {
    "port": 7127
  },
  "app": {
    "prefix": "/api/dataviewer",
    "secret": "ilovenodejsanditis"
  },
  "db": {
    "sql_db": "YCW",
    "host": "10.26.24.24",
    "user": "ycwadmin",
    "password": "ycwadmindev"
  },
  "mongoDb": {
    "sql_db": "apidb",
    "host": "10.26.24.45",
    "user": "hardik",
    "password": "Hardik12#"
  },
  "url": {
    "kibanaUrl": "http://10.26.24.32:5044",
    "testAuthUrl": "http://saasdev.ril.com/raccess/test/",
    "createRole" : "http://saasdev.ril.com/raccess/roles/insertroles"


  },
  "ngd_auth": {
    "user": "harshadm",
    "password": "Ngd@188"
  },
    "ngd_headers": {
    "Content-Type": "application/json",
    "Accept":"application/json",
    "x-csrf-token": "fetch",
    "Accept-Charset": "utf-8"
  },
  "apmUrl": {
    "apmServiceName": "dataViewer_dev",
    "apmServerUrl": "http://10.26.24.32:8200"
  },
  "isMongoAuthReq": true
}